{
    "state": "success",
    "sessionId": "d6c208f2-396b-462e-a988-7158510334a3",
    "hCode": 1588301356,
    "value": {
        "ELEMENT": "27"
    },
    "class": "org.openqa.selenium.remote.Response",
    "status": 0
}